{
    "dependencies": [
        "Jquery"
    ],
    "theme_dependencies": {
        "angular": "angular",
        "angular_highcharts": "highcharts",
        "angular_pagination": "pagination",
        "angular_elastic": "elastic"
    }
}